# Fdb version 3
["pdflatex"] 1479572427 "Prova3.tex" "Prova3.pdf" "Prova3" 1479572427
  "/usr/share/texmf-dist/fonts/enc/dvips/base/8r.enc" 1471317728 4850 80dc9bab7f31fb78a000ccfed0e27cab ""
  "/usr/share/texmf-dist/fonts/map/fontname/texfonts.map" 1471317721 3287 e6b82fe08f5336d4d5ebc73fb1152e87 ""
  "/usr/share/texmf-dist/fonts/tfm/adobe/times/ptmb7t.tfm" 1471317720 2172 fd0c924230362ff848a33632ed45dc23 ""
  "/usr/share/texmf-dist/fonts/tfm/adobe/times/ptmb8r.tfm" 1471317720 4524 6bce29db5bc272ba5f332261583fee9c ""
  "/usr/share/texmf-dist/fonts/tfm/adobe/times/ptmr7t.tfm" 1471317720 2124 2601a75482e9426d33db523edf23570a ""
  "/usr/share/texmf-dist/fonts/tfm/adobe/times/ptmr8r.tfm" 1471317720 4408 25b74d011a4c66b7f212c0cc3c90061b ""
  "/usr/share/texmf-dist/fonts/tfm/adobe/times/ptmri7t.tfm" 1471317720 2288 f478fc8fed18759effb59f3dad7f3084 ""
  "/usr/share/texmf-dist/fonts/tfm/adobe/times/zpsycmrv.tfm" 1471317720 1028 3fa1c402c2554ead873d55fc7cf9e8b9 ""
  "/usr/share/texmf-dist/fonts/tfm/adobe/times/zptmcmr.tfm" 1471317720 2172 1d00c2a0d10f23031be62329457a870c ""
  "/usr/share/texmf-dist/fonts/tfm/adobe/times/zptmcmrm.tfm" 1471317720 2020 e970c1df148989ada67768f62533fb70 ""
  "/usr/share/texmf-dist/fonts/tfm/adobe/times/zpzccmry.tfm" 1471317720 1592 9cf7d6bd275cdad1ddc3affbde20c2cc ""
  "/usr/share/texmf-dist/fonts/tfm/public/amsfonts/symbols/msam10.tfm" 1471317719 916 f87d7c45f9c908e672703b83b72241a3 ""
  "/usr/share/texmf-dist/fonts/tfm/public/amsfonts/symbols/msam7.tfm" 1471317719 928 2dc8d444221b7a635bb58038579b861a ""
  "/usr/share/texmf-dist/fonts/tfm/public/amsfonts/symbols/msbm10.tfm" 1471317719 908 2921f8a10601f252058503cc6570e581 ""
  "/usr/share/texmf-dist/fonts/tfm/public/amsfonts/symbols/msbm7.tfm" 1471317719 940 228d6584342e91276bf566bcf9716b83 ""
  "/usr/share/texmf-dist/fonts/type1/urw/times/utmb8a.pfb" 1471317723 44729 811d6c62865936705a31c797a1d5dada ""
  "/usr/share/texmf-dist/fonts/type1/urw/times/utmr8a.pfb" 1471317723 46026 6dab18b61c907687b520c72847215a68 ""
  "/usr/share/texmf-dist/fonts/vf/adobe/times/ptmb7t.vf" 1471317721 1372 788387fea833ef5963f4c5bffe33eb89 ""
  "/usr/share/texmf-dist/fonts/vf/adobe/times/ptmr7t.vf" 1471317721 1380 0ea3a3370054be6da6acd929ec569f06 ""
  "/usr/share/texmf-dist/tex/context/base/mkii/supp-pdf.mkii" 1471317728 71627 94eb9990bed73c364d7f53f960cc8c5b ""
  "/usr/share/texmf-dist/tex/generic/babel-portuges/portuges.ldf" 1471317725 6605 2bd2937f1ce929b4a1367cc2d320364e ""
  "/usr/share/texmf-dist/tex/generic/babel/babel.def" 1471317725 50112 8190990703f12b57db0dfe9b839e1e24 ""
  "/usr/share/texmf-dist/tex/generic/babel/babel.sty" 1471317725 13499 2379954ebbdf3db89eccb32499d2da36 ""
  "/usr/share/texmf-dist/tex/generic/ifxetex/ifxetex.sty" 1471317725 1458 43ab4710dc82f3edeabecd0d099626b2 ""
  "/usr/share/texmf-dist/tex/generic/oberdiek/etexcmds.sty" 1471317725 7612 729a8cc22a1ee0029997c7f74717ae05 ""
  "/usr/share/texmf-dist/tex/generic/oberdiek/ifluatex.sty" 1471317725 7324 2310d1247db0114eb4726807c8837a0e ""
  "/usr/share/texmf-dist/tex/generic/oberdiek/ifpdf.sty" 1471317725 1226 01a89dfef361f60ae7df13cd2946bc16 ""
  "/usr/share/texmf-dist/tex/generic/oberdiek/ifvtex.sty" 1471317725 6797 90b7f83b0ad46826bc16058b1e3d48df ""
  "/usr/share/texmf-dist/tex/generic/oberdiek/infwarerr.sty" 1471317725 8253 473e0e41f9adadb1977e8631b8f72ea6 ""
  "/usr/share/texmf-dist/tex/generic/oberdiek/kvdefinekeys.sty" 1471317725 5152 b67a3a964ad9851e095110c854a1d461 ""
  "/usr/share/texmf-dist/tex/generic/oberdiek/kvsetkeys.sty" 1471317725 14040 ac8866aac45982ac84021584b0abb252 ""
  "/usr/share/texmf-dist/tex/generic/oberdiek/ltxcmds.sty" 1471317725 18425 5b3c0c59d76fac78978b5558e83c1f36 ""
  "/usr/share/texmf-dist/tex/generic/oberdiek/pdftexcmds.sty" 1471317725 20115 901306eb5d88a0bb40b00d0ce4448e2f ""
  "/usr/share/texmf-dist/tex/latex/amsfonts/amsfonts.sty" 1471317724 5949 3f3fd50a8cc94c3d4cbf4fc66cd3df1c ""
  "/usr/share/texmf-dist/tex/latex/amsfonts/amssymb.sty" 1471317724 13829 94730e64147574077f8ecfea9bb69af4 ""
  "/usr/share/texmf-dist/tex/latex/amsfonts/umsa.fd" 1471317724 961 6518c6525a34feb5e8250ffa91731cff ""
  "/usr/share/texmf-dist/tex/latex/amsfonts/umsb.fd" 1471317724 961 d02606146ba5601b5645f987c92e6193 ""
  "/usr/share/texmf-dist/tex/latex/amsmath/amsbsy.sty" 1471317724 2210 5c54ab129b848a5071554186d0168766 ""
  "/usr/share/texmf-dist/tex/latex/amsmath/amsgen.sty" 1471317724 4160 c115536cf8d4ff25aa8c1c9bc4ecb79a ""
  "/usr/share/texmf-dist/tex/latex/amsmath/amsmath.sty" 1471317724 82033 ff9a037b5bad3f86db2c1a9e5c8160c3 ""
  "/usr/share/texmf-dist/tex/latex/amsmath/amsopn.sty" 1471317724 4115 318a66090112f3aa3f415aeb6fe8540f ""
  "/usr/share/texmf-dist/tex/latex/amsmath/amstext.sty" 1471317724 2431 fe3078ec12fc30287f568596f8e0b948 ""
  "/usr/share/texmf-dist/tex/latex/base/article.cls" 1471317724 19821 310da678527a7dfe2a02c88af38079b7 ""
  "/usr/share/texmf-dist/tex/latex/base/inputenc.sty" 1471317724 4732 d63eda807ac82cca2ca8488efd31a966 ""
  "/usr/share/texmf-dist/tex/latex/base/omsenc.dfu" 1471317724 2004 b59846258a6c54fecbe43d981c7a8310 ""
  "/usr/share/texmf-dist/tex/latex/base/ot1enc.dfu" 1471317724 3181 f6d8c97e5b5009a3b4a1e34490b9aa0d ""
  "/usr/share/texmf-dist/tex/latex/base/size10.clo" 1471317724 8292 e897c12e1e886ce77fe26afc5d470886 ""
  "/usr/share/texmf-dist/tex/latex/base/t1enc.dfu" 1471317724 11059 f4f43783cf4a8ffee1b201d897840536 ""
  "/usr/share/texmf-dist/tex/latex/base/utf8.def" 1471317724 7784 02e454c0f50491e8730511d8fcc96a47 ""
  "/usr/share/texmf-dist/tex/latex/geometry/geometry.sty" 1471317724 40502 e003406220954b0716679d7928aedd8a ""
  "/usr/share/texmf-dist/tex/latex/graphics-cfg/graphics.cfg" 1471317724 1224 978390e9c2234eab29404bc21b268d1e ""
  "/usr/share/texmf-dist/tex/latex/graphics-def/pdftex.def" 1471317724 57848 020e44545ff7e21278b080e3175d3354 ""
  "/usr/share/texmf-dist/tex/latex/graphics/graphics.sty" 1471317724 14539 727a4716746112f20fd860d095ccebd2 ""
  "/usr/share/texmf-dist/tex/latex/graphics/graphicx.sty" 1471317724 8125 557ab9f1bfa80d369fb45a914aa8a3b4 ""
  "/usr/share/texmf-dist/tex/latex/graphics/keyval.sty" 1471317724 2594 d18d5e19aa8239cf867fa670c556d2e9 ""
  "/usr/share/texmf-dist/tex/latex/graphics/trig.sty" 1471317724 3980 0a268fbfda01e381fa95821ab13b6aee ""
  "/usr/share/texmf-dist/tex/latex/latexconfig/epstopdf-sys.cfg" 1471317724 678 4792914a8f45be57bb98413425e4c7af ""
  "/usr/share/texmf-dist/tex/latex/oberdiek/epstopdf-base.sty" 1471317724 12095 5337833c991d80788a43d3ce26bd1c46 ""
  "/usr/share/texmf-dist/tex/latex/oberdiek/grfext.sty" 1471317724 7075 2fe3d848bba95f139de11ded085e74aa ""
  "/usr/share/texmf-dist/tex/latex/oberdiek/kvoptions.sty" 1471317724 22417 1d9df1eb66848aa31b18a593099cf45c ""
  "/usr/share/texmf-dist/tex/latex/pslatex/pslatex.sty" 1471317724 10134 d237c4595fc396f83448a99dcf1331c4 ""
  "/usr/share/texmf-dist/tex/latex/psnfss/omlptmcm.fd" 1471317724 410 9192021592ce021f5236f40ea9cb5ee2 ""
  "/usr/share/texmf-dist/tex/latex/psnfss/omspzccm.fd" 1471317724 328 d517b7c860d57a2003a0a61e6bea8c93 ""
  "/usr/share/texmf-dist/tex/latex/psnfss/omxpsycm.fd" 1471317724 328 a75fc8c20c19f9a869a56a84f006da2b ""
  "/usr/share/texmf-dist/tex/latex/psnfss/ot1ptmcm.fd" 1471317724 327 a287f1198bc35c2e45560f9504f84b3c ""
  "/usr/share/texmf-dist/tex/latex/setspace/setspace.sty" 1471317725 22913 a27d7908fc6f0385466454a966a316eb ""
  "/usr/share/texmf-dist/tex/latex/tools/array.sty" 1471317725 12398 bd782945c489f84ff012bcea4a712d25 ""
  "/usr/share/texmf-dist/tex/latex/tools/indentfirst.sty" 1471317725 1617 820bc46185ca5aeeda2ecc6c21866b18 ""
  "/usr/share/texmf-dist/tex/latex/tools/tabularx.sty" 1471317725 7141 64e8a94c3d083215654cd9a5b9dcc136 ""
  "/usr/share/texmf-dist/tex/latex/tools/verbatim.sty" 1471317725 7264 cf839ee7f0c2bfc711b0b88970764569 ""
  "/usr/share/texmf-dist/web2c/texmf.cnf" 1471317729 31669 df537245012f3e5f05bdc55644b7a3df ""
  "/var/lib/texmf/fonts/map/pdftex/updmap/pdftex.map" 1478450773 1975767 ceb4a3e498ea08864fe77979f02f7f4a ""
  "/var/lib/texmf/web2c/pdftex/pdflatex.fmt" 1478450727 7252863 13344cc19f26d9970561d4ed210dbba5 ""
  "Prova3.aux" 1479572427 182 9a1ca30b194bd545f26a173e7817d613 ""
  "Prova3.tex" 1479572424 1374 2b05cab6d95db60ead4c22238fb7f62a ""
  "UFRN.eps" 1369164620 8844 7e1e4583b9de035dd41bf00aba1e89f3 ""
  (generated)
  "Prova3.aux"
  "Prova3.log"
  "Prova3.pdf"
